<svg xmlns="http://www.w3.org/2000/svg" width="20.716" height="14.544" viewBox="0 0 20.716 14.544">
  <path id="back_arrow_light" d="M1.578,3.621.838,2.882a.8.8,0,0,0-1.129,0L-6.765,9.353a.8.8,0,0,0,0,1.129l6.475,6.475a.8.8,0,0,0,1.129,0l.739-.739a.8.8,0,0,0-.013-1.142l-4.013-3.823H12.916a.8.8,0,0,0,.8-.8V9.387a.8.8,0,0,0-.8-.8H-2.449L1.565,4.764A.794.794,0,0,0,1.578,3.621Z" transform="translate(7 -2.647)" fill="#00dede"/>
</svg>
